Algorithm,Train_data,Test_data,Accuracy,Time
naive_bayes,450,50,63.888888888888886,2.303999900817871
multinomial_naive_bayes,450,50,69.44444444444444,1.0839998722076416
bernoulli_naive_bayes,450,50,63.888888888888886,1.0219998359680176
logistic_regression_classifier,450,50,69.44444444444444,1.0299999713897705
sgdc_classifier,450,50,69.44444444444444,1.0390000343322754
svc_classifier,450,50,69.44444444444444,1.1159999370574951
nu_svc_classifier,450,50,63.888888888888886,1.1389999389648438
sitter_classifier,450,50,63.888888888888886,1.5509998798370361
